{
    "status": "OK",
    "message": "Solicitud exitosa",
    "data": {
        "data": [
            {
                "id": 9397,
                "document": {
                    "code": "01",
                    "name": "Factura electrónica de Venta"
                },
                "number": "SETP990008801",
                "api_client_name": "yeferparra18@gmail.com",
                "reference_code": "fact0012029",
                "identification": "234747208",
                "graphic_representation_name": "Probando Probando",
                "company": "",
                "trade_name": "",
                "names": "Probando Probando",
                "email": "Pepito@perez.com",
                "total": "90000.00",
                "status": 1,
                "errors": [],
                "send_email": 0,
                "has_claim": 0,
                "is_negotiable_instrument": 0,
                "payment_form": {
                    "code": "1",
                    "name": "Pago de contado"
                },
                "created_at": "23-01-2025 08:40:01 PM",
                "credit_notes": [],
                "debit_notes": []
            },
            {
                "id": 9396,
                "document": {
                    "code": "01",
                    "name": "Factura electrónica de Venta"
                },
                "number": "SETP990008800",
                "api_client_name": "yeferparra18@gmail.com",
                "reference_code": "Factura13",
                "identification": "23474208",
                "graphic_representation_name": "Celmira",
                "company": "",
                "trade_name": "",
                "names": "Celmira",
                "email": "celmiravargas10@gmail.com",
                "total": "4000000.00",
                "status": 1,
                "errors": [],
                "send_email": 0,
                "has_claim": 0,
                "is_negotiable_instrument": 0,
                "payment_form": {
                    "code": "1",
                    "name": "Pago de contado"
                },
                "created_at": "23-01-2025 08:38:41 PM",
                "credit_notes": [],
                "debit_notes": []
            },
            {
                "id": 9395,
                "document": {
                    "code": "01",
                    "name": "Factura electrónica de Venta"
                },
                "number": "SETP990008799",
                "api_client_name": "andresbra23123@hotmail.com",
                "reference_code": "fact-1737682676576",
                "identification": "3212312312",
                "graphic_representation_name": "braayan g",
                "company": "",
                "trade_name": "",
                "names": "braayan g",
                "email": "andresbra23124@gmail.com",
                "total": "400000.00",
                "status": 1,
                "errors": [],
                "send_email": 0,
                "has_claim": 0,
                "is_negotiable_instrument": 0,
                "payment_form": {
                    "code": "1",
                    "name": "Pago de contado"
                },
                "created_at": "23-01-2025 08:38:09 PM",
                "credit_notes": [],
                "debit_notes": []
            },
            {
                "id": 9394,
                "document": {
                    "code": "01",
                    "name": "Factura electrónica de Venta"
                },
                "number": "SETP990008798",
                "api_client_name": "yeferparra18@gmail.com",
                "reference_code": "Factura12",
                "identification": "23474208",
                "graphic_representation_name": "Celmira",
                "company": "",
                "trade_name": "",
                "names": "Celmira",
                "email": "celmiravargas10@gmail.com",
                "total": "4000000.00",
                "status": 1,
                "errors": [],
                "send_email": 0,
                "has_claim": 0,
                "is_negotiable_instrument": 0,
                "payment_form": {
                    "code": "1",
                    "name": "Pago de contado"
                },
                "created_at": "23-01-2025 08:34:52 PM",
                "credit_notes": [],
                "debit_notes": []
            },
            {
                "id": 9393,
                "document": {
                    "code": "01",
                    "name": "Factura electrónica de Venta"
                },
                "number": "SETP990008797",
                "api_client_name": "andresbra23123@hotmail.com",
                "reference_code": "fact-1737682411592",
                "identification": "1234567890",
                "graphic_representation_name": "sdadasd",
                "company": "",
                "trade_name": "",
                "names": "sdadasd",
                "email": "dasdasd@sdad.com",
                "total": "950000.00",
                "status": 1,
                "errors": [],
                "send_email": 0,
                "has_claim": 0,
                "is_negotiable_instrument": 0,
                "payment_form": {
                    "code": "1",
                    "name": "Pago de contado"
                },
                "created_at": "23-01-2025 08:33:45 PM",
                "credit_notes": [],
                "debit_notes": []
            },
            {
                "id": 9392,
                "document": {
                    "code": "01",
                    "name": "Factura electrónica de Venta"
                },
                "number": "SETP990008796",
                "api_client_name": "yeferparra18@gmail.com",
                "reference_code": "Factura11",
                "identification": "23474208",
                "graphic_representation_name": "Celmira",
                "company": "",
                "trade_name": "",
                "names": "Celmira",
                "email": "celmiravargas10@gmail.com",
                "total": "4000000.00",
                "status": 1,
                "errors": [],
                "send_email": 0,
                "has_claim": 0,
                "is_negotiable_instrument": 0,
                "payment_form": {
                    "code": "1",
                    "name": "Pago de contado"
                },
                "created_at": "23-01-2025 08:32:05 PM",
                "credit_notes": [],
                "debit_notes": []
            },
            {
                "id": 9391,
                "document": {
                    "code": "01",
                    "name": "Factura electrónica de Venta"
                },
                "number": "SETP990008795",
                "api_client_name": "yeferparra18@gmail.com",
                "reference_code": "Factura10",
                "identification": "23474208",
                "graphic_representation_name": "Celmira",
                "company": "",
                "trade_name": "",
                "names": "Celmira",
                "email": "celmiravargas10@gmail.com",
                "total": "4000000.00",
                "status": 1,
                "errors": [],
                "send_email": 0,
                "has_claim": 0,
                "is_negotiable_instrument": 0,
                "payment_form": {
                    "code": "1",
                    "name": "Pago de contado"
                },
                "created_at": "23-01-2025 08:29:16 PM",
                "credit_notes": [],
                "debit_notes": []
            },
            {
                "id": 9390,
                "document": {
                    "code": "01",
                    "name": "Factura electrónica de Venta"
                },
                "number": "SETP990008794",
                "api_client_name": "andresbra23123@hotmail.com",
                "reference_code": "fact-1737682087082",
                "identification": "1234567890",
                "graphic_representation_name": "sdadasd",
                "company": "",
                "trade_name": "",
                "names": "sdadasd",
                "email": "dasdasd@sdad.com",
                "total": "950000.00",
                "status": 1,
                "errors": [],
                "send_email": 0,
                "has_claim": 0,
                "is_negotiable_instrument": 0,
                "payment_form": {
                    "code": "1",
                    "name": "Pago de contado"
                },
                "created_at": "23-01-2025 08:28:20 PM",
                "credit_notes": [],
                "debit_notes": []
            },
            {
                "id": 9389,
                "document": {
                    "code": "01",
                    "name": "Factura electrónica de Venta"
                },
                "number": "SETP990008793",
                "api_client_name": "yeferparra18@gmail.com",
                "reference_code": "Factura9",
                "identification": "23474208",
                "graphic_representation_name": "Celmira",
                "company": "",
                "trade_name": "",
                "names": "Celmira",
                "email": "celmiravargas10@gmail.com",
                "total": "4000000.00",
                "status": 1,
                "errors": [],
                "send_email": 0,
                "has_claim": 0,
                "is_negotiable_instrument": 0,
                "payment_form": {
                    "code": "1",
                    "name": "Pago de contado"
                },
                "created_at": "23-01-2025 08:25:04 PM",
                "credit_notes": [],
                "debit_notes": []
            },
            {
                "id": 9388,
                "document": {
                    "code": "01",
                    "name": "Factura electrónica de Venta"
                },
                "number": "SETP990008792",
                "api_client_name": "yeferparra18@gmail.com",
                "reference_code": "Factura8",
                "identification": "23474208",
                "graphic_representation_name": "Celmira",
                "company": "",
                "trade_name": "",
                "names": "Celmira",
                "email": "celmiravargas10@gmail.com",
                "total": "4000000.00",
                "status": 1,
                "errors": [],
                "send_email": 0,
                "has_claim": 0,
                "is_negotiable_instrument": 0,
                "payment_form": {
                    "code": "1",
                    "name": "Pago de contado"
                },
                "created_at": "23-01-2025 08:23:54 PM",
                "credit_notes": [],
                "debit_notes": []
            }
        ],
        "pagination": {
            "total": 8783,
            "per_page": 10,
            "current_page": 1,
            "last_page": 879,
            "from": 1,
            "to": 10,
            "links": [
                {
                    "url": null,
                    "label": "&laquo; Anterior",
                    "active": false
                },
                {
                    "url": "https:\/\/api-sandbox.factus.com.co\/v1\/bills?page=1",
                    "label": 1,
                    "active": true,
                    "page": 1
                },
                {
                    "url": "https:\/\/api-sandbox.factus.com.co\/v1\/bills?page=2",
                    "label": 2,
                    "active": false,
                    "page": 2
                },
                {
                    "url": "https:\/\/api-sandbox.factus.com.co\/v1\/bills?page=3",
                    "label": 3,
                    "active": false,
                    "page": 3
                },
                {
                    "url": "https:\/\/api-sandbox.factus.com.co\/v1\/bills?page=4",
                    "label": 4,
                    "active": false,
                    "page": 4
                },
                {
                    "url": null,
                    "label": "...",
                    "active": false
                },
                {
                    "url": "https:\/\/api-sandbox.factus.com.co\/v1\/bills?page=879",
                    "label": 879,
                    "active": false,
                    "page": 879
                },
                {
                    "url": "https:\/\/api-sandbox.factus.com.co\/v1\/bills?page=2",
                    "label": "Siguiente &raquo;",
                    "active": false,
                    "page": 2
                }
            ]
        }
    }
}